\BOOKMARK [2][]{Outline0.1}{Introduction}{}% 1
\BOOKMARK [2][]{Outline0.2}{Latex\040Command}{}% 2
\BOOKMARK [2][]{Outline0.3}{Document\040Structure}{}% 3
\BOOKMARK [2][]{Outline0.4}{Text\040Formatting}{}% 4
\BOOKMARK [2][]{Outline0.5}{Cross-reference}{}% 5
\BOOKMARK [2][]{Outline0.6}{Typesetting\040Mathematics}{}% 6
